Titanic KNN (Versión en español)
…
receta_titanic

2.3 Horneado (bake)

El siguiente paso implica “hornear” los datos, una vez que la receta
está lista. Este proceso se lleva a cabo tanto para el conjunto de
entrenamiento (Train) como para el conjunto de prueba (Test).

# Aplicar a train
bake(receta_titanic %>% prep(), new_data = NULL)

## # A tibble: 712 × 12
##    PassengerId    Age SibSp Parch   Fare Survived Pclass_X2 Pclass_X3 Sex_male
##          <int>  <dbl> <dbl> <dbl>  <dbl> <fct>        <dbl>     <dbl>    <dbl>
##  1           1 0.269  0.125 0     0.0142 0                0         1        1
##  2           5 0.433  0     0     0.0157 0                0         1        1
##  3           6 0.345  0     0     0.0165 0                0         1        1
##  4           7 0.672  0     0     0.101  0                0         0        1
##  5           8 0.0168 0.375 0.167 0.0411 0                0         1        1
##  6          14 0.483  0.125 0.833 0.0610 0                0         1        1
##  7          19 0.382  0.125 0     0.0351 0                0         1        0
##  8          21 0.433  0     0     0.0507 0                1         0        1
##  9          25 0.0924 0.375 0.167 0.0411 0                0         1        0
## 10          27 0.345  0     0     0.0141 0                0         1        1
## # ℹ 702 more rows
## # ℹ 3 more variables: Embarked_C <dbl>, Embarked_Q <dbl>, Embarked_S <dbl>

# Aplicar a test
bake(receta_titanic %>% prep(), new_data = titanic_train_test)

## # A tibble: 179 × 12
##    PassengerId    Age SibSp Parch   Fare Survived Pclass_X2 Pclass_X3 Sex_male
##          <int>  <dbl> <dbl> <dbl>  <dbl> <fct>        <dbl>     <dbl>    <dbl>
##  1           9 0.332  0     0.333 0.0217 1                0         1        0
##  2          13 0.244  0     0     0.0157 0                0         1        1
##  3          15 0.168  0     0     0.0153 0                0         1        0
##  4          17 0.0168 0.5   0.167 0.0568 0                0         1        1
##  5          18 0.345  0     0     0.0254 1                1         0        1
##  6          29 0.345  0     0     0.0154 1                0         1        0
##  7          31 0.496  0     0     0.0541 0                0         0        1
##  8          43 0.345  0     0     0.0154 0                0         1        1
##  9          45 0.231  0     0     0.0154 1                0         1        0
## 10          47 0.345  0.125 0     0.0303 0                0         1        1
## # ℹ 169 more rows
## # ℹ 3 more variables: Embarked_C <dbl>, Embarked_Q <dbl>, Embarked_S <dbl>
…
Ahora se aplica el modelo al conjunto de datos “titanic_train_test”
con el objetivo de obtener la curva ROC y así poder observar la
exactitud de las predicciones.

# Predecir el conjunto test
predict(titanic_knn_fit, titanic_train_test)

## # A tibble: 179 × 1
##    .pred_class
##    <fct>      
##  1 1          
##  2 0          
##  3 1          
##  4 0          
##  5 0          
##  6 1          
##  7 1          
##  8 0          
##  9 0          
## 10 0          
## # ℹ 169 more rows

# Predecir las probabilidades (se usarán para la ROC)
predict(titanic_knn_fit, titanic_train_test, type = "prob")

## # A tibble: 179 × 2
##        .pred_0    .pred_1
##          <dbl>      <dbl>
##  1 0.451       0.549     
##  2 0.984       0.0161    
##  3 0.394       0.606     
##  4 0.850       0.150     
##  5 1.00        0.00000100
##  6 0.000000565 1.00      
##  7 0.249       0.751     
##  8 1.00        0.00000123
##  9 0.631       0.369     
## 10 1           0         
## # ℹ 169 more rows

El próximo paso implica integrar los resultados con la información de
los pasajeros, permitiendo así la observación y comparación del modelo
con la realidad (‘Survived’ vs ‘.pred_class’).

prob_titanic_train_test <- augment(titanic_knn_fit, titanic_train_test)
print(prob_titanic_train_test, width = Inf)

## # A tibble: 179 × 15
##    .pred_class     .pred_0    .pred_1 PassengerId Survived Pclass
##    <fct>             <dbl>      <dbl>       <int> <fct>     <int>
##  1 1           0.451       0.549                9 1             3
##  2 0           0.984       0.0161              13 0             3
##  3 1           0.394       0.606               15 0             3
##  4 0           0.850       0.150               17 0             3
##  5 0           1.00        0.00000100          18 1             2
##  6 1           0.000000565 1.00                29 1             3
##  7 1           0.249       0.751               31 0             1
##  8 0           1.00        0.00000123          43 0             3
##  9 0           0.631       0.369               45 1             3
## 10 0           1           0                   47 0             3
##    Name                                                Sex      Age SibSp Parch
##    <chr>                                               <chr>  <dbl> <int> <int>
##  1 "Johnson, Mrs. Oscar W (Elisabeth Vilhelmina Berg)" female    27     0     2
##  2 "Saundercock, Mr. William Henry"                    male      20     0     0
##  3 "Vestrom, Miss. Hulda Amanda Adolfina"              female    14     0     0
##  4 "Rice, Master. Eugene"                              male       2     4     1
##  5 "Williams, Mr. Charles Eugene"                      male      NA     0     0
##  6 "O'Dwyer, Miss. Ellen \"Nellie\""                   female    NA     0     0
##  7 "Uruchurtu, Don. Manuel E"                          male      40     0     0
##  8 "Kraeff, Mr. Theodor"                               male      NA     0     0
##  9 "Devaney, Miss. Margaret Delia"                     female    19     0     0
## 10 "Lennon, Mr. Denis"                                 male      NA     1     0
##    Ticket     Fare Cabin Embarked
##    <chr>     <dbl> <chr> <chr>   
##  1 347742    11.1  ""    S       
##  2 A/5. 2151  8.05 ""    S       
##  3 350406     7.85 ""    S       
##  4 382652    29.1  ""    Q       
##  5 244373    13    ""    S       
##  6 330959     7.88 ""    Q       
##  7 PC 17601  27.7  ""    C       
##  8 349253     7.90 ""    C       
##  9 330958     7.88 ""    Q       
## 10 370371    15.5  ""    Q       
## # ℹ 169 more rows
…
Se hace una grid que incluye los valores entre los que debe realizar
la selección.

# Grid de parámetros
grid_knn <-
  parameters(titanic_wflow) %>%
  # Actualización
  update(k = neighbors(range = c(5, 45)), #rango de vecinos del 5 al 45
         weight = weight_func(values = c("inv", "gaussian")),
         dist = dist_power(range = c(0.5, 2))) %>% #distancia de 0.5 y 2
  grid_regular(levels = 4) #que divida del 5 al 45 en 4 niveles
grid_knn

## # A tibble: 32 × 3
##        k weight    dist
##    <int> <chr>    <dbl>
##  1     5 inv        0.5
##  2    18 inv        0.5
##  3    31 inv        0.5
##  4    45 inv        0.5
##  5     5 gaussian   0.5
##  6    18 gaussian   0.5
##  7    31 gaussian   0.5
##  8    45 gaussian   0.5
##  9     5 inv        1  
## 10    18 inv        1  
## # ℹ 22 more rows
…
# Métricas
titanic_knn_fit_tune %>% collect_metrics()

## # A tibble: 128 × 9
##        k weight    dist .metric     .estimator  mean     n std_err .config      
##    <int> <chr>    <dbl> <chr>       <chr>      <dbl> <int>   <dbl> <chr>        
##  1     5 gaussian   0.5 accuracy    binary     0.806    10  0.0158 Preprocessor…
##  2     5 gaussian   0.5 roc_auc     binary     0.850    10  0.0155 Preprocessor…
##  3     5 gaussian   0.5 sensitivity binary     0.852    10  0.0256 Preprocessor…
##  4     5 gaussian   0.5 specificity binary     0.733    10  0.0308 Preprocessor…
##  5    18 gaussian   0.5 accuracy    binary     0.798    10  0.0120 Preprocessor…
##  6    18 gaussian   0.5 roc_auc     binary     0.861    10  0.0144 Preprocessor…
##  7    18 gaussian   0.5 sensitivity binary     0.884    10  0.0218 Preprocessor…
##  8    18 gaussian   0.5 specificity binary     0.659    10  0.0214 Preprocessor…
##  9    31 gaussian   0.5 accuracy    binary     0.808    10  0.0118 Preprocessor…
## 10    31 gaussian   0.5 roc_auc     binary     0.863    10  0.0138 Preprocessor…
## # ℹ 118 more rows
…
A continuación, se muestran las predicciones de los 3 modelos, en
donde se observa que el área bajo la curva AUC es amplia, por lo que la
probabilidad de que los modelos hayan acertado en clasificar si un
tripulante sobrevivió o no es buena.

pred_probs <- imap_dfr(models, augment,
                       new_data = titanic_train_test, .id = "model")

# 'Survived' y las predicciones
pred_probs <- pred_probs %>%
  select(model, Survived, .pred_class, .pred_0, .pred_1)
pred_probs

## # A tibble: 537 × 5
##    model Survived .pred_class .pred_0 .pred_1
##    <chr> <fct>    <fct>         <dbl>   <dbl>
##  1 knn_1 1        0             0.582  0.418 
##  2 knn_1 0        0             0.926  0.0738
##  3 knn_1 0        0             0.514  0.486 
##  4 knn_1 0        0             0.874  0.126 
##  5 knn_1 1        0             0.932  0.0677
##  6 knn_1 1        1             0.362  0.638 
##  7 knn_1 0        0             0.607  0.393 
##  8 knn_1 0        0             0.803  0.197 
##  9 knn_1 1        1             0.394  0.606 
## 10 knn_1 0        0             0.778  0.222 
## # ℹ 527 more rows
…
